http://d.jsy9.cn:82/?c=00001001820050476
http://d.jsy9.cn:82/?c=00001001582417046
http://d.jsy9.cn:82/?c=00001001765624791
http://d.jsy9.cn:82/?c=00001001531399134
http://d.jsy9.cn:82/?c=00001001487108454
http://d.jsy9.cn:82/?c=00001001841215531
http://d.jsy9.cn:82/?c=00001001907822241
http://d.jsy9.cn:82/?c=00001001975327484
http://d.jsy9.cn:82/?c=00001001896938804
http://d.jsy9.cn:82/?c=00001001076556224
http://d.jsy9.cn:82/?c=00001001616033884
http://d.jsy9.cn:82/?c=00001001808701774
http://d.jsy9.cn:82/?c=00001001373601043
http://d.jsy9.cn:82/?c=00001001174577834
http://d.jsy9.cn:82/?c=00001001600626925
http://d.jsy9.cn:82/?c=00001001615751464
http://d.jsy9.cn:82/?c=00001001192146949
http://d.jsy9.cn:82/?c=00001001745295524
http://d.jsy9.cn:82/?c=00001001094269871
http://d.jsy9.cn:82/?c=00001001006167342
http://d.jsy9.cn:82/?c=00001001968519418
http://d.jsy9.cn:82/?c=00001001210165554
http://d.jsy9.cn:82/?c=00001001308420854
http://d.jsy9.cn:82/?c=00001001651597649
http://d.jsy9.cn:82/?c=00001001531613745
http://d.jsy9.cn:82/?c=00001001645090314
http://d.jsy9.cn:82/?c=00001001600842936
http://d.jsy9.cn:82/?c=00001001521080411
http://d.jsy9.cn:82/?c=00001001289096421
http://d.jsy9.cn:82/?c=00001001036954370
http://d.jsy9.cn:82/?c=00001001761660424
http://d.jsy9.cn:82/?c=00001001155976644
http://d.jsy9.cn:82/?c=00001001680205575
http://d.jsy9.cn:82/?c=00001001498139784
http://d.jsy9.cn:82/?c=00001001517307120
http://d.jsy9.cn:82/?c=00001001148651894
http://d.jsy9.cn:82/?c=00001001133877329
http://d.jsy9.cn:82/?c=00001001757569432
http://d.jsy9.cn:82/?c=00001001421660444
http://d.jsy9.cn:82/?c=00001001075161514
http://d.jsy9.cn:82/?c=00001001183230248
http://d.jsy9.cn:82/?c=00001001320666774
http://d.jsy9.cn:82/?c=00001001502875294
http://d.jsy9.cn:82/?c=00001001439469624
http://d.jsy9.cn:82/?c=00001001157535966
http://d.jsy9.cn:82/?c=00001001796792294
http://d.jsy9.cn:82/?c=00001001499240571
http://d.jsy9.cn:82/?c=00001001638937804
http://d.jsy9.cn:82/?c=00001001812545190
http://d.jsy9.cn:82/?c=00001001394570804
http://d.jsy9.cn:82/?c=00001001282736044
http://d.jsy9.cn:82/?c=00001001456681274
http://d.jsy9.cn:82/?c=00001001107913943
http://d.jsy9.cn:82/?c=00001001771147846
http://d.jsy9.cn:82/?c=00001001183373475
http://d.jsy9.cn:82/?c=00001001595296448
http://d.jsy9.cn:82/?c=00001001899085418
http://d.jsy9.cn:82/?c=00001001596412692
http://d.jsy9.cn:82/?c=00001001579044781
http://d.jsy9.cn:82/?c=00001001226414749
http://d.jsy9.cn:82/?c=00001001245300438
http://d.jsy9.cn:82/?c=00001001896717545
http://d.jsy9.cn:82/?c=00001001166335145
http://d.jsy9.cn:82/?c=00001001075000340
http://d.jsy9.cn:82/?c=00001001914069744
http://d.jsy9.cn:82/?c=00001001696452849
http://d.jsy9.cn:82/?c=00001001628656479
http://d.jsy9.cn:82/?c=00001001970849243
http://d.jsy9.cn:82/?c=00001001599191494
http://d.jsy9.cn:82/?c=00001001374614247
http://d.jsy9.cn:82/?c=00001001866896429
http://d.jsy9.cn:82/?c=00001001513304052
http://d.jsy9.cn:82/?c=00001001628285640
http://d.jsy9.cn:82/?c=00001001882467643
http://d.jsy9.cn:82/?c=00001001724201461
http://d.jsy9.cn:82/?c=00001001012595770
http://d.jsy9.cn:82/?c=00001001099922467
http://d.jsy9.cn:82/?c=00001001206594718
http://d.jsy9.cn:82/?c=00001001507227662
http://d.jsy9.cn:82/?c=00001001982936044
http://d.jsy9.cn:82/?c=00001001186466184
http://d.jsy9.cn:82/?c=00001001697395407
http://d.jsy9.cn:82/?c=00001001800090149
http://d.jsy9.cn:82/?c=00001001300470446
http://d.jsy9.cn:82/?c=00001001497771272
http://d.jsy9.cn:82/?c=00001001041346852
http://d.jsy9.cn:82/?c=00001001959366834
http://d.jsy9.cn:82/?c=00001001943305474
http://d.jsy9.cn:82/?c=00001001133272254
http://d.jsy9.cn:82/?c=00001001644894822
http://d.jsy9.cn:82/?c=00001001335846770
http://d.jsy9.cn:82/?c=00001001312844587
http://d.jsy9.cn:82/?c=00001001873980940
http://d.jsy9.cn:82/?c=00001001890631044
http://d.jsy9.cn:82/?c=00001001628082999
http://d.jsy9.cn:82/?c=00001001072294884
http://d.jsy9.cn:82/?c=00001001360870943
http://d.jsy9.cn:82/?c=00001001344436690
http://d.jsy9.cn:82/?c=00001001763171264
http://d.jsy9.cn:82/?c=00001001802977140
http://d.jsy9.cn:82/?c=00001001744689244
http://d.jsy9.cn:82/?c=00001001556610904
http://d.jsy9.cn:82/?c=00001001759996453
http://d.jsy9.cn:82/?c=00001001948948901
http://d.jsy9.cn:82/?c=00001001822809844
http://d.jsy9.cn:82/?c=00001001228233041
http://d.jsy9.cn:82/?c=00001001296582654
http://d.jsy9.cn:82/?c=00001001703007744
http://d.jsy9.cn:82/?c=00001001231628547
http://d.jsy9.cn:82/?c=00001001832801454
http://d.jsy9.cn:82/?c=00001001587146264
http://d.jsy9.cn:82/?c=00001001764351428
http://d.jsy9.cn:82/?c=00001001726141197
http://d.jsy9.cn:82/?c=00001001578246822
http://d.jsy9.cn:82/?c=00001001687439286
http://d.jsy9.cn:82/?c=00001001875913140
http://d.jsy9.cn:82/?c=00001001404862932
http://d.jsy9.cn:82/?c=00001001480814553
http://d.jsy9.cn:82/?c=00001001921616945
http://d.jsy9.cn:82/?c=00001001882352948
http://d.jsy9.cn:82/?c=00001001010782348
http://d.jsy9.cn:82/?c=00001001637781575
http://d.jsy9.cn:82/?c=00001001910340741
http://d.jsy9.cn:82/?c=00001001375748544
http://d.jsy9.cn:82/?c=00001001317331549
http://d.jsy9.cn:82/?c=00001001020176696
http://d.jsy9.cn:82/?c=00001001532408400
http://d.jsy9.cn:82/?c=00001001480635094
http://d.jsy9.cn:82/?c=00001001429284887
http://d.jsy9.cn:82/?c=00001001011821344
http://d.jsy9.cn:82/?c=00001001694999246
http://d.jsy9.cn:82/?c=00001001824834783
